%YAML 1.1
%TAG !u! tag:unity3d.com,2011:
--- !u!1045 &1
EditorBuildSettings:
  m_ObjectHideFlags: 0
  serializedVersion: 2
  m_Scenes:
  - enabled: 1
    path: Assets/Menu.unity
    guid: 7498931e3f1f156479ef700c29f23eed
  - enabled: 1
    path: Assets/Main.unity
    guid: 44eceee1c30245e4c905122f3edf3845
